{
    "source": {

        "include": ["../../js","../../js/daypilot"],
        "exclude": ["../../js/JSDoc"],
        "includePattern": ".+\\.js(doc|x)?$",
        "excludePattern": "(^|\\/|\\\\)_"
    },
    "opts": {
        "destination": "docs/"
    }
}